\relax 
\bibstyle{biblatex}
\bibdata{conference_poster_3-blx}
\citation{biblatex-control}
\citation{Ward and Miller}
\citation{2012}
\citation{Ward and Miller}
\citation{2012}
\@writefile{toc}{\boolfalse {citerequest}\boolfalse {citetracker}\boolfalse {pagetracker}\boolfalse {backtracker}\relax }
\@writefile{lof}{\boolfalse {citerequest}\boolfalse {citetracker}\boolfalse {pagetracker}\boolfalse {backtracker}\relax }
\@writefile{lot}{\boolfalse {citerequest}\boolfalse {citetracker}\boolfalse {pagetracker}\boolfalse {backtracker}\relax }
\@writefile{lof}{\defcounter {refsection}{0}\relax }\@writefile{lof}{\contentsline {figure}{\numberline {1}{\ignorespaces Experimental pulsed combustor\relax }}{2}}
\@writefile{lof}{\defcounter {refsection}{0}\relax }\@writefile{lof}{\contentsline {figure}{\numberline {2}{\ignorespaces Increase in gas turbine efficiency achieved through isochoric heat addition, \cite {Ward and Miller, 2012}\relax }}{2}}
